…
``` r
install.packages(c("devtools", "httr"))
devtools::install_github("tonyfujs/povcalnetR")
```

## Example

This is a basic example which shows you how to solve a common problem:

``` r
library(povcalnetR)

## basic example code
povcalnet(country = c("ALB", "CHN"))
#> # A tibble: 53 x 31
#>    country_code country_name region_code coverage_type request_year
#>    <chr>        <chr>        <chr>       <chr>                <dbl>
#>  1 ALB          Albania      ECA         N                     1996
#>  2 ALB          Albania      ECA         N                     2002
#>  3 ALB          Albania      ECA         N                     2005
#>  4 ALB          Albania      ECA         N                     2008
#>  5 ALB          Albania      ECA         N                     2012
#>  6 CHN          China        EAP         A                     1981
#>  7 CHN          China        EAP         A                     1984
#>  8 CHN          China        EAP         A                     1987
#>  9 CHN          China        EAP         A                     1990
#> 10 CHN          China        EAP         A                     1993
#> # ... with 43 more rows, and 26 more variables: data_year <dbl>,
#> #   data_type <chr>, is_interpolated <dbl>, use_microdata <dbl>,
#> #   ppp <dbl>, poverty_line <dbl>, mean <dbl>, headcount <dbl>,
#> #   poverty_gap <dbl>, poverty_gap_sq <dbl>, watts <dbl>, gini <dbl>,
#> #   median <dbl>, mld <dbl>, polarization <dbl>, population <dbl>,
#> #   decile1 <dbl>, decile2 <dbl>, decile3 <dbl>, decile4 <dbl>,
#> #   decile5 <dbl>, decile6 <dbl>, decile7 <dbl>, decile8 <dbl>,
#> #   decile9 <dbl>, decile10 <dbl>
```
