povcalnetR • povcalnetR
…
Using default options

By default, the povcalnet function return all available

countries

coverages (national, urban, rural)

for all available survey years

at the 1.9 USD poverty line

povcalnet()
#> # A tibble: 1,753 x 31
#>    countrycode countryname regioncode coveragetype  year datayear datatype
#>    <chr>       <chr>       <chr>      <chr>        <dbl>    <dbl> <chr>   
#>  1 ALB         Albania     ECA        N             1996    1996  consump~
#>  2 ALB         Albania     ECA        N             2002    2002  consump~
#>  3 ALB         Albania     ECA        N             2005    2005  consump~
#>  4 ALB         Albania     ECA        N             2008    2008  consump~
#>  5 ALB         Albania     ECA        N             2012    2012  consump~
#>  6 DZA         Algeria     MNA        N             1988    1988  consump~
#>  7 DZA         Algeria     MNA        N             1995    1995  consump~
#>  8 DZA         Algeria     MNA        N             2011    2011. consump~
#>  9 AGO         Angola      SSA        N             2000    2000. consump~
#> 10 AGO         Angola      SSA        N             2008    2008. consump~
#> # ... with 1,743 more rows, and 24 more variables: isinterpolated <dbl>,
#> #   usemicrodata <dbl>, ppp <dbl>, povertyline <dbl>, mean <dbl>,
#> #   headcount <dbl>, povertygap <dbl>, povertygapsq <dbl>, watts <dbl>,
#> #   gini <dbl>, median <dbl>, mld <dbl>, polarization <dbl>,
#> #   population <dbl>, decile1 <dbl>, decile2 <dbl>, decile3 <dbl>,
#> #   decile4 <dbl>, decile5 <dbl>, decile6 <dbl>, decile7 <dbl>,
#> #   decile8 <dbl>, decile9 <dbl>, decile10 <dbl>
…
# Specify MULTIPLE countries
povcalnet(country = c("ALB", "CHN"))
#> # A tibble: 53 x 31
#>    countrycode countryname regioncode coveragetype  year datayear datatype
#>    <chr>       <chr>       <chr>      <chr>        <dbl>    <dbl> <chr>   
#>  1 ALB         Albania     ECA        N             1996     1996 consump~
#>  2 ALB         Albania     ECA        N             2002     2002 consump~
#>  3 ALB         Albania     ECA        N             2005     2005 consump~
#>  4 ALB         Albania     ECA        N             2008     2008 consump~
#>  5 ALB         Albania     ECA        N             2012     2012 consump~
#>  6 CHN         China       EAP        A             1981     1981 income  
#>  7 CHN         China       EAP        A             1984     1984 income  
#>  8 CHN         China       EAP        A             1987     1987 income  
#>  9 CHN         China       EAP        A             1990     1990 consump~
#> 10 CHN         China       EAP        A             1993     1993 consump~
#> # ... with 43 more rows, and 24 more variables: isinterpolated <dbl>,
#> #   usemicrodata <dbl>, ppp <dbl>, povertyline <dbl>, mean <dbl>,
#> #   headcount <dbl>, povertygap <dbl>, povertygapsq <dbl>, watts <dbl>,
#> #   gini <dbl>, median <dbl>, mld <dbl>, polarization <dbl>,
#> #   population <dbl>, decile1 <dbl>, decile2 <dbl>, decile3 <dbl>,
#> #   decile4 <dbl>, decile5 <dbl>, decile6 <dbl>, decile7 <dbl>,
#> #   decile8 <dbl>, decile9 <dbl>, decile10 <dbl>
…
